{
  "type": "minecraft:crafting_shaped",
  "pattern":
  [
    "cgc",
    "csc",
    "cbc"
  ],
  "key":
  {
    "b":
    {
      "type": "forge:ore_dict",
      "ore": "dyeBlack"
    },
    "g":
    {
      "type": "forge:ore_dict",
      "ore": "dyeGreen"
    },
    "c":
    {
      "item": "friedchickenmod:empty_can"
    },
    "s":
    {
      "item": "friedchickenmod:sugar_pack"
    }
  },
  "result":
  {
    "item": "friedchickenmod:green_monster_pack",
    "count": 1
  }
}
