{
  "type": "minecraft:crafting_shapeless",
  "ingredients": [
    {
      "item": "friedchickenmod:empty_can"
    },
    {
      "type": "forge:ore_dict",
      "ore": "dyeGreen"
    },
    {
      "type": "forge:ore_dict",
      "ore": "dyeBlack"
    },
    {
      "item": "minecraft:sugar"
    },
    {
      "item": "minecraft:sugar"
    }
  ],
  "result":
  {
    "item": "friedchickenmod:green_monster",
    "count": 1
  }
}
